<?xml version="1.0" encoding="utf-8"?>
<!-- Generator: Adobe Illustrator 15.0.2, SVG Export Plug-In . SVG Version: 6.00 Build 0)  -->
<!DOCTYPE svg PUBLIC "-//W3C//DTD SVG 1.0//EN" "http://www.w3.org/TR/2001/REC-SVG-20010904/DTD/svg10.dtd">
<svg version="1.0" id="Layer_1" xmlns="http://www.w3.org/2000/svg" xmlns:xlink="http://www.w3.org/1999/xlink" x="0px" y="0px"
	 width="60.707px" height="60.707px" viewBox="0 0 60.707 60.707" enable-background="new 0 0 60.707 60.707" xml:space="preserve">
<line fill="none" stroke="#000000" stroke-miterlimit="10" x1="0.354" y1="0.354" x2="60.354" y2="60.354"/>
<line fill="none" stroke="#000000" stroke-miterlimit="10" x1="60.354" y1="0.354" x2="0.354" y2="60.354"/>
</svg>
